<?xml version="1.0" encoding="utf-8"?>
<!-- Generator: Adobe Illustrator 19.0.0, SVG Export Plug-In . SVG Version: 6.00 Build 0)  -->
<svg version="1.1" id="Layer_1" xmlns="http://www.w3.org/2000/svg" xmlns:xlink="http://www.w3.org/1999/xlink" x="0px" y="0px"
	 width="26px" height="26px" viewBox="-1191 2850 26 26" style="enable-background:new -1191 2850 26 26;" xml:space="preserve">
<style type="text/css">
	.st0{clip-path:url(#SVGID_2_);}
	.st1{clip-path:url(#SVGID_4_);fill:#6EAEB8;}
</style>
<g>
	<g>
		<defs>
			<path id="SVGID_1_" d="M-1167.1,2867.1c-1.6,0-3.2-0.3-4.7-0.7c-0.7-0.3-1.6,0-2,0.4l-3,2.2c-3.4-1.8-5.6-4-7.3-7.3l2.2-2.9
				c0.5-0.5,0.7-1.3,0.5-2.1c-0.5-1.5-0.7-3.1-0.7-4.7c0-1.1-0.9-2.1-2.1-2.1h-4.8c-1.1,0-2.1,0.9-2.1,2.1
				c0,13.2,10.7,23.9,23.9,23.9c1.1,0,2.1-0.9,2.1-2.1v-4.8C-1165,2868-1165.9,2867.1-1167.1,2867.1z"/>
		</defs>
		<clipPath id="SVGID_2_">
			<use xlink:href="#SVGID_1_"  style="overflow:visible;"/>
		</clipPath>
		<g class="st0">
			<g>
				<defs>
					<rect id="SVGID_3_" x="-2161.4" y="1998.8" width="1920" height="1820"/>
				</defs>
				<clipPath id="SVGID_4_">
					<use xlink:href="#SVGID_3_"  style="overflow:visible;"/>
				</clipPath>
				<rect x="-1196" y="2845" class="st1" width="36" height="36"/>
			</g>
		</g>
	</g>
</g>
</svg>
